DATE,Employee ID,Employee Last Name,Employee First Name,Report ID,Employee Default Currency Alpha Code,Report Submit Date,Report Processing Payment Date,Report Name,Report Entry Expense Type Name,Report Entry Transaction Date,Report Entry Is Personal Flag,Report Entry Description,Report Entry Vendor Name,Report Entry Vendor Description,Report Entry Payment Code Code,Report Entry Payment Code Name,Report Payment Reimbursement Type,Billed Credit Card Account Number,Billed Credit Card Account Description,Journal Payer Payment Code Name,Journal Payee Payment Type Name,Journal Amount,Journal Account Code,Journal Debit Or Credit,Payment Demand Company Cash Account Code,Payment Demand Company Liability Account Code,Estimated Payment Date,Project,Phase,Task,Studio
2018-01-02,002029,MORROW,TERAN,0501171D81C54FCC86B2,USD,2017-11-17,2017-12-13,Test October Expenses,Meals OH,2017-10-27,N,United Way  Bonfire,,COSTCO WHSE #0359,CBCP,Company Billed/Company Paid,1,480707XXXXXX6758,TERAN MORROW,Company/Employee Pseudo Payment Code,Bank of America VISA Corporate Card CBCP - US,23.57,8551,DR,,,2018-01-05,000564200,N20,****,01000
2018-01-02,002029,MORROW,TERAN,0501171D81C54FCC86B2,USD,2017-11-17,2017-12-13,Test October Expenses,Airfare OH,2017-10-22,N,BST Conference,,AMERICAN AIR0010266307990,CBCP,Company Billed/Company Paid,1,480707XXXXXX6758,TERAN MORROW,Company/Employee Pseudo Payment Code,Bank of America VISA Corporate Card CBCP - US,25.00,8554,DR,,,2018-01-05,0C4652900,N20,****,00C40
2018-01-02,002029,MORROW,TERAN,0501171D81C54FCC86B2,USD,2017-11-17,2017-12-13,Test October Expenses,Meals OH,2017-10-13,N,United Way Bonfire,,CIRCLE K # 23928,CBCP,Company Billed/Company Paid,1,480707XXXXXX6758,TERAN MORROW,Company/Employee Pseudo Payment Code,Bank of America VISA Corporate Card CBCP - US,20.36,8551,DR,,,2018-01-05,000564200,N20,****,01000
2018-01-02,002029,MORROW,TERAN,0501171D81C54FCC86B2,USD,2017-11-17,2017-12-13,Test October Expenses,Meals OH,2017-10-25,N,BST Conference,,GASPARILLA BAR F2 TPA,CBCP,Company Billed/Company Paid,1,480707XXXXXX6758,TERAN MORROW,Company/Employee Pseudo Payment Code,Bank of America VISA Corporate Card CBCP - US,32.73,8551,DR,,,2018-01-05,0C4652900,N20,****,00C40
2018-01-02,002029,MORROW,TERAN,0501171D81C54FCC86B2,USD,2017-11-17,2017-12-13,Test October Expenses,Staff Meetings & Relations,2017-10-13,N,United Way Bonfire,,COSTCO WHSE #0359,CBCP,Company Billed/Company Paid,1,480707XXXXXX6758,TERAN MORROW,Company/Employee Pseudo Payment Code,Bank of America VISA Corporate Card CBCP - US,184.44,8219,DR,,,2018-01-05,000564200,N20,****,01000
2018-01-02,002029,MORROW,TERAN,0501171D81C54FCC86B2,USD,2017-11-17,2017-12-13,Test October Expenses,Meals OH,2017-10-24,N,BST Conference,,SANDPEARL TATE GRILL,CBCP,Company Billed/Company Paid,1,480707XXXXXX6758,TERAN MORROW,Company/Employee Pseudo Payment Code,Bank of America VISA Corporate Card CBCP - US,80.41,8551,DR,,,2018-01-05,0C4652900,N20,****,00C40
2018-01-02,002029,MORROW,TERAN,0501171D81C54FCC86B2,USD,2017-11-17,2017-12-13,Test October Expenses,Training/Education/Seminars,2017-09-27,N,Excel Training,,THE EMPLOYERS ASSOCIATION,CBCP,Company Billed/Company Paid,1,480707XXXXXX6758,TERAN MORROW,Company/Employee Pseudo Payment Code,Bank of America VISA Corporate Card CBCP - US,215.00,8005,DR,,,2018-01-05,0C4002600,N20,****,00C40
2018-01-02,002029,MORROW,TERAN,0501171D81C54FCC86B2,USD,2017-11-17,2017-12-13,Test October Expenses,"Travel (parking, tolls, gas, taxi) OH",2017-10-16,N,BST Conference,,PARK N GO OF CHARLOTTE EC,CBCP,Company Billed/Company Paid,1,480707XXXXXX6758,TERAN MORROW,Company/Employee Pseudo Payment Code,Bank of America VISA Corporate Card CBCP - US,30.58,8555,DR,,,2018-01-05,0C4652900,N20,****,00C40
2018-01-02,002029,MORROW,TERAN,0501171D81C54FCC86B2,USD,2017-11-17,2017-12-13,Test October Expenses,Hotel OH,2017-10-25,N,BST Conference,,SANDPEARL RESORT,CBCP,Company Billed/Company Paid,1,480707XXXXXX6758,TERAN MORROW,Company/Employee Pseudo Payment Code,Bank of America VISA Corporate Card CBCP - US,98.59,8530,DR,,,2018-01-05,0C4652900,N20,****,00C40
2018-01-02,002029,MORROW,TERAN,0501171D81C54FCC86B2,USD,2017-11-17,2017-12-13,Test October Expenses,"Travel (parking, tolls, gas, taxi) OH",2017-10-25,N,BST Conference,,UBER TECHNOLOGIES INC,CBCP,Company Billed/Company Paid,1,480707XXXXXX6758,TERAN MORROW,Company/Employee Pseudo Payment Code,Bank of America VISA Corporate Card CBCP - US,24.99,8555,DR,,,2018-01-05,0C4652900,N20,****,00C40
2018-01-02,002091,KNOWLES,DANIEL,9AA008D5001041C4AD1E,USD,2017-11-17,2017-12-12,Test October Expenses,Meals OH,2017-10-23,N,Dinner at BST conference,,CLEAR SKY CAFE,CBCP,Company Billed/Company Paid,1,480707XXXXXX8418,DANIEL F. KNOWLES,Company/Employee Pseudo Payment Code,Bank of America VISA Corporate Card CBCP - US,88.86,8551,DR,,,2018-01-05,0T2002600,N20,****,00T20
2018-01-02,002091,KNOWLES,DANIEL,9AA008D5001041C4AD1E,USD,2017-11-17,2017-12-12,Test October Expenses,IT - Dues & Subscriptions,2017-10-14,N,Azure Office 365 tenant,,MSFT * E08004NF9H,CBCP,Company Billed/Company Paid,1,480707XXXXXX8418,DANIEL F. KNOWLES,Company/Employee Pseudo Payment Code,Bank of America VISA Corporate Card CBCP - US,156.38,8049,DR,,,2018-01-05,0T2002600,N20,****,00T20
2018-01-02,002091,KNOWLES,DANIEL,9AA008D5001041C4AD1E,USD,2017-11-17,2017-12-12,Test October Expenses,"Travel (parking, tolls, gas, taxi) OH",2017-10-22,N,Travel from TPA to hotel,,UBER   OCT22 PXLPU,CBCP,Company Billed/Company Paid,1,480707XXXXXX8418,DANIEL F. KNOWLES,Company/Employee Pseudo Payment Code,Bank of America VISA Corporate Card CBCP - US,31.22,8555,DR,,,2018-01-05,0T2002600,N20,****,00T20
2018-01-02,002091,KNOWLES,DANIEL,9AA008D5001041C4AD1E,USD,2017-11-17,2017-12-12,Test October Expenses,Meals OH,2017-10-25,N,Dinner,,POPEYES CHICKEN #4,CBCP,Company Billed/Company Paid,1,480707XXXXXX8418,DANIEL F. KNOWLES,Company/Employee Pseudo Payment Code,Bank of America VISA Corporate Card CBCP - US,8.07,8551,DR,,,2018-01-05,0T2002600,N20,****,00T20
2018-01-02,002091,KNOWLES,DANIEL,9AA008D5001041C4AD1E,USD,2017-11-17,2017-12-12,Test October Expenses,Meals OH,2017-10-25,N,Lunch,,TPA HOSPITALITY PARTNERS,CBCP,Company Billed/Company Paid,1,480707XXXXXX8418,DANIEL F. KNOWLES,Company/Employee Pseudo Payment Code,Bank of America VISA Corporate Card CBCP - US,9.46,8551,DR,,,2018-01-05,0T2002600,N20,****,00T20
2018-01-02,002091,KNOWLES,DANIEL,9AA008D5001041C4AD1E,USD,2017-11-17,2017-12-12,Test October Expenses,"Travel (parking, tolls, gas, taxi) OH",2017-10-25,N,Parking at CLT,,CHARLOTTE AVIATION/PRKNG,CBCP,Company Billed/Company Paid,1,480707XXXXXX8418,DANIEL F. KNOWLES,Company/Employee Pseudo Payment Code,Bank of America VISA Corporate Card CBCP - US,28.00,8555,DR,,,2018-01-05,0T2002600,N20,****,00T20
2018-01-02,002091,KNOWLES,DANIEL,9AA008D5001041C4AD1E,USD,2017-11-17,2017-12-12,Test October Expenses,Hotel OH,2017-10-25,N,BST conference,,SANDPEARL RESORT,CBCP,Company Billed/Company Paid,1,480707XXXXXX8418,DANIEL F. KNOWLES,Company/Employee Pseudo Payment Code,Bank of America VISA Corporate Card CBCP - US,98.59,8530,DR,,,2018-01-05,0T2002600,N20,****,00T20
2018-01-02,002091,KNOWLES,DANIEL,9AA008D5001041C4AD1E,USD,2017-11-17,2017-12-12,Test October Expenses,IT - Dues & Subscriptions,2017-10-26,N,Azure backups and authentication,,MSFT * E05004Q24A,CBCP,Company Billed/Company Paid,1,480707XXXXXX8418,DANIEL F. KNOWLES,Company/Employee Pseudo Payment Code,Bank of America VISA Corporate Card CBCP - US,1167.40,8049,DR,,,2018-01-05,0T2002600,N20,****,00T20
